^C:\DOCUMENTS AND SETTINGS\KIRK HANSEN\LOCAL SETTINGS\APPLICATION DATA\TEMPORARY PROJECTS\WINDOWSFORMSAPPLICATION1\FORM1.RESX
^C:\DOCUMENTS AND SETTINGS\KIRK HANSEN\LOCAL SETTINGS\APPLICATION DATA\TEMPORARY PROJECTS\WINDOWSFORMSAPPLICATION1\PROPERTIES\RESOURCES.RESX
^C:\DOCUMENTS AND SETTINGS\KIRK HANSEN\MY DOCUMENTS\VISUAL STUDIO 2010\PROJECTS\ADDICTIONSOLITARE\ADDICTIONSOLITARE\PROPERTIES\RESOURCES.RESX
C:\WINDOWS\ASSEMBLY\PUBPOL3.DAT
C:\WINDOWS\MICROSOFT.NET\ASSEMBLY\GAC_MSIL\MICROSOFT.BUILD.TASKS.V4.0\V4.0_4.0.0.0__B03F5F7F11D50A3A\MICROSOFT.BUILD.TASKS.V4.0.DLL
C:\DOCUMENTS AND SETTINGS\KIRK HANSEN\MY DOCUMENTS\VISUAL STUDIO 2010\PROJECTS\ADDICTIONSOLITARE\ADDICTIONSOLITARE\RESOURCES\BACK192.GIF
C:\DOCUMENTS AND SETTINGS\KIRK HANSEN\MY DOCUMENTS\VISUAL STUDIO 2010\PROJECTS\ADDICTIONSOLITARE\ADDICTIONSOLITARE\RESOURCES\01C.GIF
C:\DOCUMENTS AND SETTINGS\KIRK HANSEN\MY DOCUMENTS\VISUAL STUDIO 2010\PROJECTS\ADDICTIONSOLITARE\ADDICTIONSOLITARE\RESOURCES\01D.GIF
C:\DOCUMENTS AND SETTINGS\KIRK HANSEN\MY DOCUMENTS\VISUAL STUDIO 2010\PROJECTS\ADDICTIONSOLITARE\ADDICTIONSOLITARE\RESOURCES\01H.GIF
C:\DOCUMENTS AND SETTINGS\KIRK HANSEN\MY DOCUMENTS\VISUAL STUDIO 2010\PROJECTS\ADDICTIONSOLITARE\ADDICTIONSOLITARE\RESOURCES\01S.GIF
C:\DOCUMENTS AND SETTINGS\KIRK HANSEN\MY DOCUMENTS\VISUAL STUDIO 2010\PROJECTS\ADDICTIONSOLITARE\ADDICTIONSOLITARE\RESOURCES\02C.GIF
C:\DOCUMENTS AND SETTINGS\KIRK HANSEN\MY DOCUMENTS\VISUAL STUDIO 2010\PROJECTS\ADDICTIONSOLITARE\ADDICTIONSOLITARE\RESOURCES\02D.GIF
C:\DOCUMENTS AND SETTINGS\KIRK HANSEN\MY DOCUMENTS\VISUAL STUDIO 2010\PROJECTS\ADDICTIONSOLITARE\ADDICTIONSOLITARE\RESOURCES\02H.GIF
C:\DOCUMENTS AND SETTINGS\KIRK HANSEN\MY DOCUMENTS\VISUAL STUDIO 2010\PROJECTS\ADDICTIONSOLITARE\ADDICTIONSOLITARE\RESOURCES\02S.GIF
C:\DOCUMENTS AND SETTINGS\KIRK HANSEN\MY DOCUMENTS\VISUAL STUDIO 2010\PROJECTS\ADDICTIONSOLITARE\ADDICTIONSOLITARE\RESOURCES\03C.GIF
C:\DOCUMENTS AND SETTINGS\KIRK HANSEN\MY DOCUMENTS\VISUAL STUDIO 2010\PROJECTS\ADDICTIONSOLITARE\ADDICTIONSOLITARE\RESOURCES\03D.GIF
C:\DOCUMENTS AND SETTINGS\KIRK HANSEN\MY DOCUMENTS\VISUAL STUDIO 2010\PROJECTS\ADDICTIONSOLITARE\ADDICTIONSOLITARE\RESOURCES\03H.GIF
C:\DOCUMENTS AND SETTINGS\KIRK HANSEN\MY DOCUMENTS\VISUAL STUDIO 2010\PROJECTS\ADDICTIONSOLITARE\ADDICTIONSOLITARE\RESOURCES\03S.GIF
C:\DOCUMENTS AND SETTINGS\KIRK HANSEN\MY DOCUMENTS\VISUAL STUDIO 2010\PROJECTS\ADDICTIONSOLITARE\ADDICTIONSOLITARE\RESOURCES\04C.GIF
C:\DOCUMENTS AND SETTINGS\KIRK HANSEN\MY DOCUMENTS\VISUAL STUDIO 2010\PROJECTS\ADDICTIONSOLITARE\ADDICTIONSOLITARE\RESOURCES\04D.GIF
C:\DOCUMENTS AND SETTINGS\KIRK HANSEN\MY DOCUMENTS\VISUAL STUDIO 2010\PROJECTS\ADDICTIONSOLITARE\ADDICTIONSOLITARE\RESOURCES\04H.GIF
C:\DOCUMENTS AND SETTINGS\KIRK HANSEN\MY DOCUMENTS\VISUAL STUDIO 2010\PROJECTS\ADDICTIONSOLITARE\ADDICTIONSOLITARE\RESOURCES\04S.GIF
C:\DOCUMENTS AND SETTINGS\KIRK HANSEN\MY DOCUMENTS\VISUAL STUDIO 2010\PROJECTS\ADDICTIONSOLITARE\ADDICTIONSOLITARE\RESOURCES\05C.GIF
C:\DOCUMENTS AND SETTINGS\KIRK HANSEN\MY DOCUMENTS\VISUAL STUDIO 2010\PROJECTS\ADDICTIONSOLITARE\ADDICTIONSOLITARE\RESOURCES\05D.GIF
C:\DOCUMENTS AND SETTINGS\KIRK HANSEN\MY DOCUMENTS\VISUAL STUDIO 2010\PROJECTS\ADDICTIONSOLITARE\ADDICTIONSOLITARE\RESOURCES\05H.GIF
C:\DOCUMENTS AND SETTINGS\KIRK HANSEN\MY DOCUMENTS\VISUAL STUDIO 2010\PROJECTS\ADDICTIONSOLITARE\ADDICTIONSOLITARE\RESOURCES\05S.GIF
C:\DOCUMENTS AND SETTINGS\KIRK HANSEN\MY DOCUMENTS\VISUAL STUDIO 2010\PROJECTS\ADDICTIONSOLITARE\ADDICTIONSOLITARE\RESOURCES\06C.GIF
C:\DOCUMENTS AND SETTINGS\KIRK HANSEN\MY DOCUMENTS\VISUAL STUDIO 2010\PROJECTS\ADDICTIONSOLITARE\ADDICTIONSOLITARE\RESOURCES\06D.GIF
C:\DOCUMENTS AND SETTINGS\KIRK HANSEN\MY DOCUMENTS\VISUAL STUDIO 2010\PROJECTS\ADDICTIONSOLITARE\ADDICTIONSOLITARE\RESOURCES\06H.GIF
C:\DOCUMENTS AND SETTINGS\KIRK HANSEN\MY DOCUMENTS\VISUAL STUDIO 2010\PROJECTS\ADDICTIONSOLITARE\ADDICTIONSOLITARE\RESOURCES\06S.GIF
C:\DOCUMENTS AND SETTINGS\KIRK HANSEN\MY DOCUMENTS\VISUAL STUDIO 2010\PROJECTS\ADDICTIONSOLITARE\ADDICTIONSOLITARE\RESOURCES\07C.GIF
C:\DOCUMENTS AND SETTINGS\KIRK HANSEN\MY DOCUMENTS\VISUAL STUDIO 2010\PROJECTS\ADDICTIONSOLITARE\ADDICTIONSOLITARE\RESOURCES\07D.GIF
C:\DOCUMENTS AND SETTINGS\KIRK HANSEN\MY DOCUMENTS\VISUAL STUDIO 2010\PROJECTS\ADDICTIONSOLITARE\ADDICTIONSOLITARE\RESOURCES\07H.GIF
C:\DOCUMENTS AND SETTINGS\KIRK HANSEN\MY DOCUMENTS\VISUAL STUDIO 2010\PROJECTS\ADDICTIONSOLITARE\ADDICTIONSOLITARE\RESOURCES\07S.GIF
C:\DOCUMENTS AND SETTINGS\KIRK HANSEN\MY DOCUMENTS\VISUAL STUDIO 2010\PROJECTS\ADDICTIONSOLITARE\ADDICTIONSOLITARE\RESOURCES\08C.GIF
C:\DOCUMENTS AND SETTINGS\KIRK HANSEN\MY DOCUMENTS\VISUAL STUDIO 2010\PROJECTS\ADDICTIONSOLITARE\ADDICTIONSOLITARE\RESOURCES\08D.GIF
C:\DOCUMENTS AND SETTINGS\KIRK HANSEN\MY DOCUMENTS\VISUAL STUDIO 2010\PROJECTS\ADDICTIONSOLITARE\ADDICTIONSOLITARE\RESOURCES\08H.GIF
C:\DOCUMENTS AND SETTINGS\KIRK HANSEN\MY DOCUMENTS\VISUAL STUDIO 2010\PROJECTS\ADDICTIONSOLITARE\ADDICTIONSOLITARE\RESOURCES\08S.GIF
C:\DOCUMENTS AND SETTINGS\KIRK HANSEN\MY DOCUMENTS\VISUAL STUDIO 2010\PROJECTS\ADDICTIONSOLITARE\ADDICTIONSOLITARE\RESOURCES\09C.GIF
C:\DOCUMENTS AND SETTINGS\KIRK HANSEN\MY DOCUMENTS\VISUAL STUDIO 2010\PROJECTS\ADDICTIONSOLITARE\ADDICTIONSOLITARE\RESOURCES\09D.GIF
C:\DOCUMENTS AND SETTINGS\KIRK HANSEN\MY DOCUMENTS\VISUAL STUDIO 2010\PROJECTS\ADDICTIONSOLITARE\ADDICTIONSOLITARE\RESOURCES\09H.GIF
C:\DOCUMENTS AND SETTINGS\KIRK HANSEN\MY DOCUMENTS\VISUAL STUDIO 2010\PROJECTS\ADDICTIONSOLITARE\ADDICTIONSOLITARE\RESOURCES\09S.GIF
C:\DOCUMENTS AND SETTINGS\KIRK HANSEN\MY DOCUMENTS\VISUAL STUDIO 2010\PROJECTS\ADDICTIONSOLITARE\ADDICTIONSOLITARE\RESOURCES\10C.GIF
C:\DOCUMENTS AND SETTINGS\KIRK HANSEN\MY DOCUMENTS\VISUAL STUDIO 2010\PROJECTS\ADDICTIONSOLITARE\ADDICTIONSOLITARE\RESOURCES\10D.GIF
C:\DOCUMENTS AND SETTINGS\KIRK HANSEN\MY DOCUMENTS\VISUAL STUDIO 2010\PROJECTS\ADDICTIONSOLITARE\ADDICTIONSOLITARE\RESOURCES\10H.GIF
C:\DOCUMENTS AND SETTINGS\KIRK HANSEN\MY DOCUMENTS\VISUAL STUDIO 2010\PROJECTS\ADDICTIONSOLITARE\ADDICTIONSOLITARE\RESOURCES\10S.GIF
C:\DOCUMENTS AND SETTINGS\KIRK HANSEN\MY DOCUMENTS\VISUAL STUDIO 2010\PROJECTS\ADDICTIONSOLITARE\ADDICTIONSOLITARE\RESOURCES\11C.GIF
C:\DOCUMENTS AND SETTINGS\KIRK HANSEN\MY DOCUMENTS\VISUAL STUDIO 2010\PROJECTS\ADDICTIONSOLITARE\ADDICTIONSOLITARE\RESOURCES\11D.GIF
C:\DOCUMENTS AND SETTINGS\KIRK HANSEN\MY DOCUMENTS\VISUAL STUDIO 2010\PROJECTS\ADDICTIONSOLITARE\ADDICTIONSOLITARE\RESOURCES\11H.GIF
C:\DOCUMENTS AND SETTINGS\KIRK HANSEN\MY DOCUMENTS\VISUAL STUDIO 2010\PROJECTS\ADDICTIONSOLITARE\ADDICTIONSOLITARE\RESOURCES\11S.GIF
C:\DOCUMENTS AND SETTINGS\KIRK HANSEN\MY DOCUMENTS\VISUAL STUDIO 2010\PROJECTS\ADDICTIONSOLITARE\ADDICTIONSOLITARE\RESOURCES\12C.GIF
C:\DOCUMENTS AND SETTINGS\KIRK HANSEN\MY DOCUMENTS\VISUAL STUDIO 2010\PROJECTS\ADDICTIONSOLITARE\ADDICTIONSOLITARE\RESOURCES\12D.GIF
C:\DOCUMENTS AND SETTINGS\KIRK HANSEN\MY DOCUMENTS\VISUAL STUDIO 2010\PROJECTS\ADDICTIONSOLITARE\ADDICTIONSOLITARE\RESOURCES\12H.GIF
C:\DOCUMENTS AND SETTINGS\KIRK HANSEN\MY DOCUMENTS\VISUAL STUDIO 2010\PROJECTS\ADDICTIONSOLITARE\ADDICTIONSOLITARE\RESOURCES\12S.GIF
C:\DOCUMENTS AND SETTINGS\KIRK HANSEN\MY DOCUMENTS\VISUAL STUDIO 2010\PROJECTS\ADDICTIONSOLITARE\ADDICTIONSOLITARE\RESOURCES\13C.GIF
C:\DOCUMENTS AND SETTINGS\KIRK HANSEN\MY DOCUMENTS\VISUAL STUDIO 2010\PROJECTS\ADDICTIONSOLITARE\ADDICTIONSOLITARE\RESOURCES\13D.GIF
C:\DOCUMENTS AND SETTINGS\KIRK HANSEN\MY DOCUMENTS\VISUAL STUDIO 2010\PROJECTS\ADDICTIONSOLITARE\ADDICTIONSOLITARE\RESOURCES\13H.GIF
C:\DOCUMENTS AND SETTINGS\KIRK HANSEN\MY DOCUMENTS\VISUAL STUDIO 2010\PROJECTS\ADDICTIONSOLITARE\ADDICTIONSOLITARE\RESOURCES\13S.GIF
^C:\DOCUMENTS AND SETTINGS\KIRK HANSEN\MY DOCUMENTS\VISUAL STUDIO 2010\PROJECTS\ADDICTIONSOLITARE\ADDICTIONSOLITARE\FORM1.RESX
^E:\ADDICTIONSOLITARE\FORM1.RESX
^E:\ADDICTIONSOLITARE\PROPERTIES\RESOURCES.RESX
C:\WINDOWS\ASSEMBLY\PUBPOL3.DAT
C:\WINDOWS\MICROSOFT.NET\ASSEMBLY\GAC_MSIL\MICROSOFT.BUILD.TASKS.V4.0\V4.0_4.0.0.0__B03F5F7F11D50A3A\MICROSOFT.BUILD.TASKS.V4.0.DLL
E:\ADDICTIONSOLITARE\RESOURCES\BACK192.GIF
E:\ADDICTIONSOLITARE\RESOURCES\01C.GIF
E:\ADDICTIONSOLITARE\RESOURCES\01D.GIF
E:\ADDICTIONSOLITARE\RESOURCES\01H.GIF
E:\ADDICTIONSOLITARE\RESOURCES\01S.GIF
E:\ADDICTIONSOLITARE\RESOURCES\02C.GIF
E:\ADDICTIONSOLITARE\RESOURCES\02D.GIF
E:\ADDICTIONSOLITARE\RESOURCES\02H.GIF
E:\ADDICTIONSOLITARE\RESOURCES\02S.GIF
E:\ADDICTIONSOLITARE\RESOURCES\03C.GIF
E:\ADDICTIONSOLITARE\RESOURCES\03D.GIF
E:\ADDICTIONSOLITARE\RESOURCES\03H.GIF
E:\ADDICTIONSOLITARE\RESOURCES\03S.GIF
E:\ADDICTIONSOLITARE\RESOURCES\04C.GIF
E:\ADDICTIONSOLITARE\RESOURCES\04D.GIF
E:\ADDICTIONSOLITARE\RESOURCES\04H.GIF
E:\ADDICTIONSOLITARE\RESOURCES\04S.GIF
E:\ADDICTIONSOLITARE\RESOURCES\05C.GIF
E:\ADDICTIONSOLITARE\RESOURCES\05D.GIF
E:\ADDICTIONSOLITARE\RESOURCES\05H.GIF
E:\ADDICTIONSOLITARE\RESOURCES\05S.GIF
E:\ADDICTIONSOLITARE\RESOURCES\06C.GIF
E:\ADDICTIONSOLITARE\RESOURCES\06D.GIF
E:\ADDICTIONSOLITARE\RESOURCES\06H.GIF
E:\ADDICTIONSOLITARE\RESOURCES\06S.GIF
E:\ADDICTIONSOLITARE\RESOURCES\07C.GIF
E:\ADDICTIONSOLITARE\RESOURCES\07D.GIF
E:\ADDICTIONSOLITARE\RESOURCES\07H.GIF
E:\ADDICTIONSOLITARE\RESOURCES\07S.GIF
E:\ADDICTIONSOLITARE\RESOURCES\08C.GIF
E:\ADDICTIONSOLITARE\RESOURCES\08D.GIF
E:\ADDICTIONSOLITARE\RESOURCES\08H.GIF
E:\ADDICTIONSOLITARE\RESOURCES\08S.GIF
E:\ADDICTIONSOLITARE\RESOURCES\09C.GIF
E:\ADDICTIONSOLITARE\RESOURCES\09D.GIF
E:\ADDICTIONSOLITARE\RESOURCES\09H.GIF
E:\ADDICTIONSOLITARE\RESOURCES\09S.GIF
E:\ADDICTIONSOLITARE\RESOURCES\10C.GIF
E:\ADDICTIONSOLITARE\RESOURCES\10D.GIF
E:\ADDICTIONSOLITARE\RESOURCES\10H.GIF
E:\ADDICTIONSOLITARE\RESOURCES\10S.GIF
E:\ADDICTIONSOLITARE\RESOURCES\11C.GIF
E:\ADDICTIONSOLITARE\RESOURCES\11D.GIF
E:\ADDICTIONSOLITARE\RESOURCES\11H.GIF
E:\ADDICTIONSOLITARE\RESOURCES\11S.GIF
E:\ADDICTIONSOLITARE\RESOURCES\12C.GIF
E:\ADDICTIONSOLITARE\RESOURCES\12D.GIF
E:\ADDICTIONSOLITARE\RESOURCES\12H.GIF
E:\ADDICTIONSOLITARE\RESOURCES\12S.GIF
E:\ADDICTIONSOLITARE\RESOURCES\13C.GIF
E:\ADDICTIONSOLITARE\RESOURCES\13D.GIF
E:\ADDICTIONSOLITARE\RESOURCES\13H.GIF
E:\ADDICTIONSOLITARE\RESOURCES\13S.GIF
^I:\ADDICTIONSOLITARE\FORM1.RESX
^I:\ADDICTIONSOLITARE\PROPERTIES\RESOURCES.RESX
C:\WINDOWS\ASSEMBLY\PUBPOL3.DAT
C:\WINDOWS\MICROSOFT.NET\ASSEMBLY\GAC_MSIL\MICROSOFT.BUILD.TASKS.V4.0\V4.0_4.0.0.0__B03F5F7F11D50A3A\MICROSOFT.BUILD.TASKS.V4.0.DLL
I:\ADDICTIONSOLITARE\RESOURCES\BACK192.GIF
I:\ADDICTIONSOLITARE\RESOURCES\01C.GIF
I:\ADDICTIONSOLITARE\RESOURCES\01D.GIF
I:\ADDICTIONSOLITARE\RESOURCES\01H.GIF
I:\ADDICTIONSOLITARE\RESOURCES\01S.GIF
I:\ADDICTIONSOLITARE\RESOURCES\02C.GIF
I:\ADDICTIONSOLITARE\RESOURCES\02D.GIF
I:\ADDICTIONSOLITARE\RESOURCES\02H.GIF
I:\ADDICTIONSOLITARE\RESOURCES\02S.GIF
I:\ADDICTIONSOLITARE\RESOURCES\03C.GIF
I:\ADDICTIONSOLITARE\RESOURCES\03D.GIF
I:\ADDICTIONSOLITARE\RESOURCES\03H.GIF
I:\ADDICTIONSOLITARE\RESOURCES\03S.GIF
I:\ADDICTIONSOLITARE\RESOURCES\04C.GIF
I:\ADDICTIONSOLITARE\RESOURCES\04D.GIF
I:\ADDICTIONSOLITARE\RESOURCES\04H.GIF
I:\ADDICTIONSOLITARE\RESOURCES\04S.GIF
I:\ADDICTIONSOLITARE\RESOURCES\05C.GIF
I:\ADDICTIONSOLITARE\RESOURCES\05D.GIF
I:\ADDICTIONSOLITARE\RESOURCES\05H.GIF
I:\ADDICTIONSOLITARE\RESOURCES\05S.GIF
I:\ADDICTIONSOLITARE\RESOURCES\06C.GIF
I:\ADDICTIONSOLITARE\RESOURCES\06D.GIF
I:\ADDICTIONSOLITARE\RESOURCES\06H.GIF
I:\ADDICTIONSOLITARE\RESOURCES\06S.GIF
I:\ADDICTIONSOLITARE\RESOURCES\07C.GIF
I:\ADDICTIONSOLITARE\RESOURCES\07D.GIF
I:\ADDICTIONSOLITARE\RESOURCES\07H.GIF
I:\ADDICTIONSOLITARE\RESOURCES\07S.GIF
I:\ADDICTIONSOLITARE\RESOURCES\08C.GIF
I:\ADDICTIONSOLITARE\RESOURCES\08D.GIF
I:\ADDICTIONSOLITARE\RESOURCES\08H.GIF
I:\ADDICTIONSOLITARE\RESOURCES\08S.GIF
I:\ADDICTIONSOLITARE\RESOURCES\09C.GIF
I:\ADDICTIONSOLITARE\RESOURCES\09D.GIF
I:\ADDICTIONSOLITARE\RESOURCES\09H.GIF
I:\ADDICTIONSOLITARE\RESOURCES\09S.GIF
I:\ADDICTIONSOLITARE\RESOURCES\10C.GIF
I:\ADDICTIONSOLITARE\RESOURCES\10D.GIF
I:\ADDICTIONSOLITARE\RESOURCES\10H.GIF
I:\ADDICTIONSOLITARE\RESOURCES\10S.GIF
I:\ADDICTIONSOLITARE\RESOURCES\11C.GIF
I:\ADDICTIONSOLITARE\RESOURCES\11D.GIF
I:\ADDICTIONSOLITARE\RESOURCES\11H.GIF
I:\ADDICTIONSOLITARE\RESOURCES\11S.GIF
I:\ADDICTIONSOLITARE\RESOURCES\12C.GIF
I:\ADDICTIONSOLITARE\RESOURCES\12D.GIF
I:\ADDICTIONSOLITARE\RESOURCES\12H.GIF
I:\ADDICTIONSOLITARE\RESOURCES\12S.GIF
I:\ADDICTIONSOLITARE\RESOURCES\13C.GIF
I:\ADDICTIONSOLITARE\RESOURCES\13D.GIF
I:\ADDICTIONSOLITARE\RESOURCES\13H.GIF
I:\ADDICTIONSOLITARE\RESOURCES\13S.GIF
^C:\DOCUMENTS AND SETTINGS\KIRK HANSEN\REPOS\ADDICTION-SOLITARE\ADDICTIONSOLITARE\FORM1.RESX
^C:\DOCUMENTS AND SETTINGS\KIRK HANSEN\REPOS\ADDICTION-SOLITARE\ADDICTIONSOLITARE\PROPERTIES\RESOURCES.RESX
C:\WINDOWS\ASSEMBLY\PUBPOL3.DAT
C:\WINDOWS\MICROSOFT.NET\ASSEMBLY\GAC_MSIL\MICROSOFT.BUILD.TASKS.V4.0\V4.0_4.0.0.0__B03F5F7F11D50A3A\MICROSOFT.BUILD.TASKS.V4.0.DLL
C:\DOCUMENTS AND SETTINGS\KIRK HANSEN\REPOS\ADDICTION-SOLITARE\ADDICTIONSOLITARE\RESOURCES\BACK192.GIF
C:\DOCUMENTS AND SETTINGS\KIRK HANSEN\REPOS\ADDICTION-SOLITARE\ADDICTIONSOLITARE\RESOURCES\01C.GIF
C:\DOCUMENTS AND SETTINGS\KIRK HANSEN\REPOS\ADDICTION-SOLITARE\ADDICTIONSOLITARE\RESOURCES\01D.GIF
C:\DOCUMENTS AND SETTINGS\KIRK HANSEN\REPOS\ADDICTION-SOLITARE\ADDICTIONSOLITARE\RESOURCES\01H.GIF
C:\DOCUMENTS AND SETTINGS\KIRK HANSEN\REPOS\ADDICTION-SOLITARE\ADDICTIONSOLITARE\RESOURCES\01S.GIF
C:\DOCUMENTS AND SETTINGS\KIRK HANSEN\REPOS\ADDICTION-SOLITARE\ADDICTIONSOLITARE\RESOURCES\02C.GIF
C:\DOCUMENTS AND SETTINGS\KIRK HANSEN\REPOS\ADDICTION-SOLITARE\ADDICTIONSOLITARE\RESOURCES\02D.GIF
C:\DOCUMENTS AND SETTINGS\KIRK HANSEN\REPOS\ADDICTION-SOLITARE\ADDICTIONSOLITARE\RESOURCES\02H.GIF
C:\DOCUMENTS AND SETTINGS\KIRK HANSEN\REPOS\ADDICTION-SOLITARE\ADDICTIONSOLITARE\RESOURCES\02S.GIF
C:\DOCUMENTS AND SETTINGS\KIRK HANSEN\REPOS\ADDICTION-SOLITARE\ADDICTIONSOLITARE\RESOURCES\03C.GIF
C:\DOCUMENTS AND SETTINGS\KIRK HANSEN\REPOS\ADDICTION-SOLITARE\ADDICTIONSOLITARE\RESOURCES\03D.GIF
C:\DOCUMENTS AND SETTINGS\KIRK HANSEN\REPOS\ADDICTION-SOLITARE\ADDICTIONSOLITARE\RESOURCES\03H.GIF
C:\DOCUMENTS AND SETTINGS\KIRK HANSEN\REPOS\ADDICTION-SOLITARE\ADDICTIONSOLITARE\RESOURCES\03S.GIF
C:\DOCUMENTS AND SETTINGS\KIRK HANSEN\REPOS\ADDICTION-SOLITARE\ADDICTIONSOLITARE\RESOURCES\04C.GIF
C:\DOCUMENTS AND SETTINGS\KIRK HANSEN\REPOS\ADDICTION-SOLITARE\ADDICTIONSOLITARE\RESOURCES\04D.GIF
C:\DOCUMENTS AND SETTINGS\KIRK HANSEN\REPOS\ADDICTION-SOLITARE\ADDICTIONSOLITARE\RESOURCES\04H.GIF
C:\DOCUMENTS AND SETTINGS\KIRK HANSEN\REPOS\ADDICTION-SOLITARE\ADDICTIONSOLITARE\RESOURCES\04S.GIF
C:\DOCUMENTS AND SETTINGS\KIRK HANSEN\REPOS\ADDICTION-SOLITARE\ADDICTIONSOLITARE\RESOURCES\05C.GIF
C:\DOCUMENTS AND SETTINGS\KIRK HANSEN\REPOS\ADDICTION-SOLITARE\ADDICTIONSOLITARE\RESOURCES\05D.GIF
C:\DOCUMENTS AND SETTINGS\KIRK HANSEN\REPOS\ADDICTION-SOLITARE\ADDICTIONSOLITARE\RESOURCES\05H.GIF
C:\DOCUMENTS AND SETTINGS\KIRK HANSEN\REPOS\ADDICTION-SOLITARE\ADDICTIONSOLITARE\RESOURCES\05S.GIF
C:\DOCUMENTS AND SETTINGS\KIRK HANSEN\REPOS\ADDICTION-SOLITARE\ADDICTIONSOLITARE\RESOURCES\06C.GIF
C:\DOCUMENTS AND SETTINGS\KIRK HANSEN\REPOS\ADDICTION-SOLITARE\ADDICTIONSOLITARE\RESOURCES\06D.GIF
C:\DOCUMENTS AND SETTINGS\KIRK HANSEN\REPOS\ADDICTION-SOLITARE\ADDICTIONSOLITARE\RESOURCES\06H.GIF
C:\DOCUMENTS AND SETTINGS\KIRK HANSEN\REPOS\ADDICTION-SOLITARE\ADDICTIONSOLITARE\RESOURCES\06S.GIF
C:\DOCUMENTS AND SETTINGS\KIRK HANSEN\REPOS\ADDICTION-SOLITARE\ADDICTIONSOLITARE\RESOURCES\07C.GIF
C:\DOCUMENTS AND SETTINGS\KIRK HANSEN\REPOS\ADDICTION-SOLITARE\ADDICTIONSOLITARE\RESOURCES\07D.GIF
C:\DOCUMENTS AND SETTINGS\KIRK HANSEN\REPOS\ADDICTION-SOLITARE\ADDICTIONSOLITARE\RESOURCES\07H.GIF
C:\DOCUMENTS AND SETTINGS\KIRK HANSEN\REPOS\ADDICTION-SOLITARE\ADDICTIONSOLITARE\RESOURCES\07S.GIF
C:\DOCUMENTS AND SETTINGS\KIRK HANSEN\REPOS\ADDICTION-SOLITARE\ADDICTIONSOLITARE\RESOURCES\08C.GIF
C:\DOCUMENTS AND SETTINGS\KIRK HANSEN\REPOS\ADDICTION-SOLITARE\ADDICTIONSOLITARE\RESOURCES\08D.GIF
C:\DOCUMENTS AND SETTINGS\KIRK HANSEN\REPOS\ADDICTION-SOLITARE\ADDICTIONSOLITARE\RESOURCES\08H.GIF
C:\DOCUMENTS AND SETTINGS\KIRK HANSEN\REPOS\ADDICTION-SOLITARE\ADDICTIONSOLITARE\RESOURCES\08S.GIF
C:\DOCUMENTS AND SETTINGS\KIRK HANSEN\REPOS\ADDICTION-SOLITARE\ADDICTIONSOLITARE\RESOURCES\09C.GIF
C:\DOCUMENTS AND SETTINGS\KIRK HANSEN\REPOS\ADDICTION-SOLITARE\ADDICTIONSOLITARE\RESOURCES\09D.GIF
C:\DOCUMENTS AND SETTINGS\KIRK HANSEN\REPOS\ADDICTION-SOLITARE\ADDICTIONSOLITARE\RESOURCES\09H.GIF
C:\DOCUMENTS AND SETTINGS\KIRK HANSEN\REPOS\ADDICTION-SOLITARE\ADDICTIONSOLITARE\RESOURCES\09S.GIF
C:\DOCUMENTS AND SETTINGS\KIRK HANSEN\REPOS\ADDICTION-SOLITARE\ADDICTIONSOLITARE\RESOURCES\10C.GIF
C:\DOCUMENTS AND SETTINGS\KIRK HANSEN\REPOS\ADDICTION-SOLITARE\ADDICTIONSOLITARE\RESOURCES\10D.GIF
C:\DOCUMENTS AND SETTINGS\KIRK HANSEN\REPOS\ADDICTION-SOLITARE\ADDICTIONSOLITARE\RESOURCES\10H.GIF
C:\DOCUMENTS AND SETTINGS\KIRK HANSEN\REPOS\ADDICTION-SOLITARE\ADDICTIONSOLITARE\RESOURCES\10S.GIF
C:\DOCUMENTS AND SETTINGS\KIRK HANSEN\REPOS\ADDICTION-SOLITARE\ADDICTIONSOLITARE\RESOURCES\11C.GIF
C:\DOCUMENTS AND SETTINGS\KIRK HANSEN\REPOS\ADDICTION-SOLITARE\ADDICTIONSOLITARE\RESOURCES\11D.GIF
C:\DOCUMENTS AND SETTINGS\KIRK HANSEN\REPOS\ADDICTION-SOLITARE\ADDICTIONSOLITARE\RESOURCES\11H.GIF
C:\DOCUMENTS AND SETTINGS\KIRK HANSEN\REPOS\ADDICTION-SOLITARE\ADDICTIONSOLITARE\RESOURCES\11S.GIF
C:\DOCUMENTS AND SETTINGS\KIRK HANSEN\REPOS\ADDICTION-SOLITARE\ADDICTIONSOLITARE\RESOURCES\12C.GIF
C:\DOCUMENTS AND SETTINGS\KIRK HANSEN\REPOS\ADDICTION-SOLITARE\ADDICTIONSOLITARE\RESOURCES\12D.GIF
C:\DOCUMENTS AND SETTINGS\KIRK HANSEN\REPOS\ADDICTION-SOLITARE\ADDICTIONSOLITARE\RESOURCES\12H.GIF
C:\DOCUMENTS AND SETTINGS\KIRK HANSEN\REPOS\ADDICTION-SOLITARE\ADDICTIONSOLITARE\RESOURCES\12S.GIF
C:\DOCUMENTS AND SETTINGS\KIRK HANSEN\REPOS\ADDICTION-SOLITARE\ADDICTIONSOLITARE\RESOURCES\13C.GIF
C:\DOCUMENTS AND SETTINGS\KIRK HANSEN\REPOS\ADDICTION-SOLITARE\ADDICTIONSOLITARE\RESOURCES\13D.GIF
C:\DOCUMENTS AND SETTINGS\KIRK HANSEN\REPOS\ADDICTION-SOLITARE\ADDICTIONSOLITARE\RESOURCES\13H.GIF
C:\DOCUMENTS AND SETTINGS\KIRK HANSEN\REPOS\ADDICTION-SOLITARE\ADDICTIONSOLITARE\RESOURCES\13S.GIF
^C:\DOCUMENTS AND SETTINGS\KIRK HANSEN\REPOS\ADDICTION-SOLITAIRE\ADDICTIONSOLITARE\FORM1.RESX
^C:\DOCUMENTS AND SETTINGS\KIRK HANSEN\REPOS\ADDICTION-SOLITAIRE\ADDICTIONSOLITARE\PROPERTIES\RESOURCES.RESX
C:\WINDOWS\ASSEMBLY\PUBPOL3.DAT
C:\WINDOWS\MICROSOFT.NET\ASSEMBLY\GAC_MSIL\MICROSOFT.BUILD.TASKS.V4.0\V4.0_4.0.0.0__B03F5F7F11D50A3A\MICROSOFT.BUILD.TASKS.V4.0.DLL
C:\DOCUMENTS AND SETTINGS\KIRK HANSEN\REPOS\ADDICTION-SOLITAIRE\ADDICTIONSOLITARE\RESOURCES\BACK192.GIF
C:\DOCUMENTS AND SETTINGS\KIRK HANSEN\REPOS\ADDICTION-SOLITAIRE\ADDICTIONSOLITARE\RESOURCES\01C.GIF
C:\DOCUMENTS AND SETTINGS\KIRK HANSEN\REPOS\ADDICTION-SOLITAIRE\ADDICTIONSOLITARE\RESOURCES\01D.GIF
C:\DOCUMENTS AND SETTINGS\KIRK HANSEN\REPOS\ADDICTION-SOLITAIRE\ADDICTIONSOLITARE\RESOURCES\01H.GIF
C:\DOCUMENTS AND SETTINGS\KIRK HANSEN\REPOS\ADDICTION-SOLITAIRE\ADDICTIONSOLITARE\RESOURCES\01S.GIF
C:\DOCUMENTS AND SETTINGS\KIRK HANSEN\REPOS\ADDICTION-SOLITAIRE\ADDICTIONSOLITARE\RESOURCES\02C.GIF
C:\DOCUMENTS AND SETTINGS\KIRK HANSEN\REPOS\ADDICTION-SOLITAIRE\ADDICTIONSOLITARE\RESOURCES\02D.GIF
C:\DOCUMENTS AND SETTINGS\KIRK HANSEN\REPOS\ADDICTION-SOLITAIRE\ADDICTIONSOLITARE\RESOURCES\02H.GIF
C:\DOCUMENTS AND SETTINGS\KIRK HANSEN\REPOS\ADDICTION-SOLITAIRE\ADDICTIONSOLITARE\RESOURCES\02S.GIF
C:\DOCUMENTS AND SETTINGS\KIRK HANSEN\REPOS\ADDICTION-SOLITAIRE\ADDICTIONSOLITARE\RESOURCES\03C.GIF
C:\DOCUMENTS AND SETTINGS\KIRK HANSEN\REPOS\ADDICTION-SOLITAIRE\ADDICTIONSOLITARE\RESOURCES\03D.GIF
C:\DOCUMENTS AND SETTINGS\KIRK HANSEN\REPOS\ADDICTION-SOLITAIRE\ADDICTIONSOLITARE\RESOURCES\03H.GIF
C:\DOCUMENTS AND SETTINGS\KIRK HANSEN\REPOS\ADDICTION-SOLITAIRE\ADDICTIONSOLITARE\RESOURCES\03S.GIF
C:\DOCUMENTS AND SETTINGS\KIRK HANSEN\REPOS\ADDICTION-SOLITAIRE\ADDICTIONSOLITARE\RESOURCES\04C.GIF
C:\DOCUMENTS AND SETTINGS\KIRK HANSEN\REPOS\ADDICTION-SOLITAIRE\ADDICTIONSOLITARE\RESOURCES\04D.GIF
C:\DOCUMENTS AND SETTINGS\KIRK HANSEN\REPOS\ADDICTION-SOLITAIRE\ADDICTIONSOLITARE\RESOURCES\04H.GIF
C:\DOCUMENTS AND SETTINGS\KIRK HANSEN\REPOS\ADDICTION-SOLITAIRE\ADDICTIONSOLITARE\RESOURCES\04S.GIF
C:\DOCUMENTS AND SETTINGS\KIRK HANSEN\REPOS\ADDICTION-SOLITAIRE\ADDICTIONSOLITARE\RESOURCES\05C.GIF
C:\DOCUMENTS AND SETTINGS\KIRK HANSEN\REPOS\ADDICTION-SOLITAIRE\ADDICTIONSOLITARE\RESOURCES\05D.GIF
C:\DOCUMENTS AND SETTINGS\KIRK HANSEN\REPOS\ADDICTION-SOLITAIRE\ADDICTIONSOLITARE\RESOURCES\05H.GIF
C:\DOCUMENTS AND SETTINGS\KIRK HANSEN\REPOS\ADDICTION-SOLITAIRE\ADDICTIONSOLITARE\RESOURCES\05S.GIF
C:\DOCUMENTS AND SETTINGS\KIRK HANSEN\REPOS\ADDICTION-SOLITAIRE\ADDICTIONSOLITARE\RESOURCES\06C.GIF
C:\DOCUMENTS AND SETTINGS\KIRK HANSEN\REPOS\ADDICTION-SOLITAIRE\ADDICTIONSOLITARE\RESOURCES\06D.GIF
C:\DOCUMENTS AND SETTINGS\KIRK HANSEN\REPOS\ADDICTION-SOLITAIRE\ADDICTIONSOLITARE\RESOURCES\06H.GIF
C:\DOCUMENTS AND SETTINGS\KIRK HANSEN\REPOS\ADDICTION-SOLITAIRE\ADDICTIONSOLITARE\RESOURCES\06S.GIF
C:\DOCUMENTS AND SETTINGS\KIRK HANSEN\REPOS\ADDICTION-SOLITAIRE\ADDICTIONSOLITARE\RESOURCES\07C.GIF
C:\DOCUMENTS AND SETTINGS\KIRK HANSEN\REPOS\ADDICTION-SOLITAIRE\ADDICTIONSOLITARE\RESOURCES\07D.GIF
C:\DOCUMENTS AND SETTINGS\KIRK HANSEN\REPOS\ADDICTION-SOLITAIRE\ADDICTIONSOLITARE\RESOURCES\07H.GIF
C:\DOCUMENTS AND SETTINGS\KIRK HANSEN\REPOS\ADDICTION-SOLITAIRE\ADDICTIONSOLITARE\RESOURCES\07S.GIF
C:\DOCUMENTS AND SETTINGS\KIRK HANSEN\REPOS\ADDICTION-SOLITAIRE\ADDICTIONSOLITARE\RESOURCES\08C.GIF
C:\DOCUMENTS AND SETTINGS\KIRK HANSEN\REPOS\ADDICTION-SOLITAIRE\ADDICTIONSOLITARE\RESOURCES\08D.GIF
C:\DOCUMENTS AND SETTINGS\KIRK HANSEN\REPOS\ADDICTION-SOLITAIRE\ADDICTIONSOLITARE\RESOURCES\08H.GIF
C:\DOCUMENTS AND SETTINGS\KIRK HANSEN\REPOS\ADDICTION-SOLITAIRE\ADDICTIONSOLITARE\RESOURCES\08S.GIF
C:\DOCUMENTS AND SETTINGS\KIRK HANSEN\REPOS\ADDICTION-SOLITAIRE\ADDICTIONSOLITARE\RESOURCES\09C.GIF
C:\DOCUMENTS AND SETTINGS\KIRK HANSEN\REPOS\ADDICTION-SOLITAIRE\ADDICTIONSOLITARE\RESOURCES\09D.GIF
C:\DOCUMENTS AND SETTINGS\KIRK HANSEN\REPOS\ADDICTION-SOLITAIRE\ADDICTIONSOLITARE\RESOURCES\09H.GIF
C:\DOCUMENTS AND SETTINGS\KIRK HANSEN\REPOS\ADDICTION-SOLITAIRE\ADDICTIONSOLITARE\RESOURCES\09S.GIF
C:\DOCUMENTS AND SETTINGS\KIRK HANSEN\REPOS\ADDICTION-SOLITAIRE\ADDICTIONSOLITARE\RESOURCES\10C.GIF
C:\DOCUMENTS AND SETTINGS\KIRK HANSEN\REPOS\ADDICTION-SOLITAIRE\ADDICTIONSOLITARE\RESOURCES\10D.GIF
C:\DOCUMENTS AND SETTINGS\KIRK HANSEN\REPOS\ADDICTION-SOLITAIRE\ADDICTIONSOLITARE\RESOURCES\10H.GIF
C:\DOCUMENTS AND SETTINGS\KIRK HANSEN\REPOS\ADDICTION-SOLITAIRE\ADDICTIONSOLITARE\RESOURCES\10S.GIF
C:\DOCUMENTS AND SETTINGS\KIRK HANSEN\REPOS\ADDICTION-SOLITAIRE\ADDICTIONSOLITARE\RESOURCES\11C.GIF
C:\DOCUMENTS AND SETTINGS\KIRK HANSEN\REPOS\ADDICTION-SOLITAIRE\ADDICTIONSOLITARE\RESOURCES\11D.GIF
C:\DOCUMENTS AND SETTINGS\KIRK HANSEN\REPOS\ADDICTION-SOLITAIRE\ADDICTIONSOLITARE\RESOURCES\11H.GIF
C:\DOCUMENTS AND SETTINGS\KIRK HANSEN\REPOS\ADDICTION-SOLITAIRE\ADDICTIONSOLITARE\RESOURCES\11S.GIF
C:\DOCUMENTS AND SETTINGS\KIRK HANSEN\REPOS\ADDICTION-SOLITAIRE\ADDICTIONSOLITARE\RESOURCES\12C.GIF
C:\DOCUMENTS AND SETTINGS\KIRK HANSEN\REPOS\ADDICTION-SOLITAIRE\ADDICTIONSOLITARE\RESOURCES\12D.GIF
C:\DOCUMENTS AND SETTINGS\KIRK HANSEN\REPOS\ADDICTION-SOLITAIRE\ADDICTIONSOLITARE\RESOURCES\12H.GIF
C:\DOCUMENTS AND SETTINGS\KIRK HANSEN\REPOS\ADDICTION-SOLITAIRE\ADDICTIONSOLITARE\RESOURCES\12S.GIF
C:\DOCUMENTS AND SETTINGS\KIRK HANSEN\REPOS\ADDICTION-SOLITAIRE\ADDICTIONSOLITARE\RESOURCES\13C.GIF
C:\DOCUMENTS AND SETTINGS\KIRK HANSEN\REPOS\ADDICTION-SOLITAIRE\ADDICTIONSOLITARE\RESOURCES\13D.GIF
C:\DOCUMENTS AND SETTINGS\KIRK HANSEN\REPOS\ADDICTION-SOLITAIRE\ADDICTIONSOLITARE\RESOURCES\13H.GIF
C:\DOCUMENTS AND SETTINGS\KIRK HANSEN\REPOS\ADDICTION-SOLITAIRE\ADDICTIONSOLITARE\RESOURCES\13S.GIF
^C:\DOCUMENTS AND SETTINGS\KIRK HANSEN\REPOS\ADDICTION-SOLITAIRE\ADDICTIONSOLITAIRE\PROPERTIES\RESOURCES.RESX
C:\WINDOWS\ASSEMBLY\PUBPOL3.DAT
C:\WINDOWS\MICROSOFT.NET\ASSEMBLY\GAC_MSIL\MICROSOFT.BUILD.TASKS.V4.0\V4.0_4.0.0.0__B03F5F7F11D50A3A\MICROSOFT.BUILD.TASKS.V4.0.DLL
C:\DOCUMENTS AND SETTINGS\KIRK HANSEN\REPOS\ADDICTION-SOLITAIRE\ADDICTIONSOLITAIRE\RESOURCES\BACK192.GIF
C:\DOCUMENTS AND SETTINGS\KIRK HANSEN\REPOS\ADDICTION-SOLITAIRE\ADDICTIONSOLITAIRE\RESOURCES\01C.GIF
C:\DOCUMENTS AND SETTINGS\KIRK HANSEN\REPOS\ADDICTION-SOLITAIRE\ADDICTIONSOLITAIRE\RESOURCES\01D.GIF
C:\DOCUMENTS AND SETTINGS\KIRK HANSEN\REPOS\ADDICTION-SOLITAIRE\ADDICTIONSOLITAIRE\RESOURCES\01H.GIF
C:\DOCUMENTS AND SETTINGS\KIRK HANSEN\REPOS\ADDICTION-SOLITAIRE\ADDICTIONSOLITAIRE\RESOURCES\01S.GIF
C:\DOCUMENTS AND SETTINGS\KIRK HANSEN\REPOS\ADDICTION-SOLITAIRE\ADDICTIONSOLITAIRE\RESOURCES\02C.GIF
C:\DOCUMENTS AND SETTINGS\KIRK HANSEN\REPOS\ADDICTION-SOLITAIRE\ADDICTIONSOLITAIRE\RESOURCES\02D.GIF
C:\DOCUMENTS AND SETTINGS\KIRK HANSEN\REPOS\ADDICTION-SOLITAIRE\ADDICTIONSOLITAIRE\RESOURCES\02H.GIF
C:\DOCUMENTS AND SETTINGS\KIRK HANSEN\REPOS\ADDICTION-SOLITAIRE\ADDICTIONSOLITAIRE\RESOURCES\02S.GIF
C:\DOCUMENTS AND SETTINGS\KIRK HANSEN\REPOS\ADDICTION-SOLITAIRE\ADDICTIONSOLITAIRE\RESOURCES\03C.GIF
C:\DOCUMENTS AND SETTINGS\KIRK HANSEN\REPOS\ADDICTION-SOLITAIRE\ADDICTIONSOLITAIRE\RESOURCES\03D.GIF
C:\DOCUMENTS AND SETTINGS\KIRK HANSEN\REPOS\ADDICTION-SOLITAIRE\ADDICTIONSOLITAIRE\RESOURCES\03H.GIF
C:\DOCUMENTS AND SETTINGS\KIRK HANSEN\REPOS\ADDICTION-SOLITAIRE\ADDICTIONSOLITAIRE\RESOURCES\03S.GIF
C:\DOCUMENTS AND SETTINGS\KIRK HANSEN\REPOS\ADDICTION-SOLITAIRE\ADDICTIONSOLITAIRE\RESOURCES\04C.GIF
C:\DOCUMENTS AND SETTINGS\KIRK HANSEN\REPOS\ADDICTION-SOLITAIRE\ADDICTIONSOLITAIRE\RESOURCES\04D.GIF
C:\DOCUMENTS AND SETTINGS\KIRK HANSEN\REPOS\ADDICTION-SOLITAIRE\ADDICTIONSOLITAIRE\RESOURCES\04H.GIF
C:\DOCUMENTS AND SETTINGS\KIRK HANSEN\REPOS\ADDICTION-SOLITAIRE\ADDICTIONSOLITAIRE\RESOURCES\04S.GIF
C:\DOCUMENTS AND SETTINGS\KIRK HANSEN\REPOS\ADDICTION-SOLITAIRE\ADDICTIONSOLITAIRE\RESOURCES\05C.GIF
C:\DOCUMENTS AND SETTINGS\KIRK HANSEN\REPOS\ADDICTION-SOLITAIRE\ADDICTIONSOLITAIRE\RESOURCES\05D.GIF
C:\DOCUMENTS AND SETTINGS\KIRK HANSEN\REPOS\ADDICTION-SOLITAIRE\ADDICTIONSOLITAIRE\RESOURCES\05H.GIF
C:\DOCUMENTS AND SETTINGS\KIRK HANSEN\REPOS\ADDICTION-SOLITAIRE\ADDICTIONSOLITAIRE\RESOURCES\05S.GIF
C:\DOCUMENTS AND SETTINGS\KIRK HANSEN\REPOS\ADDICTION-SOLITAIRE\ADDICTIONSOLITAIRE\RESOURCES\06C.GIF
C:\DOCUMENTS AND SETTINGS\KIRK HANSEN\REPOS\ADDICTION-SOLITAIRE\ADDICTIONSOLITAIRE\RESOURCES\06D.GIF
C:\DOCUMENTS AND SETTINGS\KIRK HANSEN\REPOS\ADDICTION-SOLITAIRE\ADDICTIONSOLITAIRE\RESOURCES\06H.GIF
C:\DOCUMENTS AND SETTINGS\KIRK HANSEN\REPOS\ADDICTION-SOLITAIRE\ADDICTIONSOLITAIRE\RESOURCES\06S.GIF
C:\DOCUMENTS AND SETTINGS\KIRK HANSEN\REPOS\ADDICTION-SOLITAIRE\ADDICTIONSOLITAIRE\RESOURCES\07C.GIF
C:\DOCUMENTS AND SETTINGS\KIRK HANSEN\REPOS\ADDICTION-SOLITAIRE\ADDICTIONSOLITAIRE\RESOURCES\07D.GIF
C:\DOCUMENTS AND SETTINGS\KIRK HANSEN\REPOS\ADDICTION-SOLITAIRE\ADDICTIONSOLITAIRE\RESOURCES\07H.GIF
C:\DOCUMENTS AND SETTINGS\KIRK HANSEN\REPOS\ADDICTION-SOLITAIRE\ADDICTIONSOLITAIRE\RESOURCES\07S.GIF
C:\DOCUMENTS AND SETTINGS\KIRK HANSEN\REPOS\ADDICTION-SOLITAIRE\ADDICTIONSOLITAIRE\RESOURCES\08C.GIF
C:\DOCUMENTS AND SETTINGS\KIRK HANSEN\REPOS\ADDICTION-SOLITAIRE\ADDICTIONSOLITAIRE\RESOURCES\08D.GIF
C:\DOCUMENTS AND SETTINGS\KIRK HANSEN\REPOS\ADDICTION-SOLITAIRE\ADDICTIONSOLITAIRE\RESOURCES\08H.GIF
C:\DOCUMENTS AND SETTINGS\KIRK HANSEN\REPOS\ADDICTION-SOLITAIRE\ADDICTIONSOLITAIRE\RESOURCES\08S.GIF
C:\DOCUMENTS AND SETTINGS\KIRK HANSEN\REPOS\ADDICTION-SOLITAIRE\ADDICTIONSOLITAIRE\RESOURCES\09C.GIF
C:\DOCUMENTS AND SETTINGS\KIRK HANSEN\REPOS\ADDICTION-SOLITAIRE\ADDICTIONSOLITAIRE\RESOURCES\09D.GIF
C:\DOCUMENTS AND SETTINGS\KIRK HANSEN\REPOS\ADDICTION-SOLITAIRE\ADDICTIONSOLITAIRE\RESOURCES\09H.GIF
C:\DOCUMENTS AND SETTINGS\KIRK HANSEN\REPOS\ADDICTION-SOLITAIRE\ADDICTIONSOLITAIRE\RESOURCES\09S.GIF
C:\DOCUMENTS AND SETTINGS\KIRK HANSEN\REPOS\ADDICTION-SOLITAIRE\ADDICTIONSOLITAIRE\RESOURCES\10C.GIF
C:\DOCUMENTS AND SETTINGS\KIRK HANSEN\REPOS\ADDICTION-SOLITAIRE\ADDICTIONSOLITAIRE\RESOURCES\10D.GIF
C:\DOCUMENTS AND SETTINGS\KIRK HANSEN\REPOS\ADDICTION-SOLITAIRE\ADDICTIONSOLITAIRE\RESOURCES\10H.GIF
C:\DOCUMENTS AND SETTINGS\KIRK HANSEN\REPOS\ADDICTION-SOLITAIRE\ADDICTIONSOLITAIRE\RESOURCES\10S.GIF
C:\DOCUMENTS AND SETTINGS\KIRK HANSEN\REPOS\ADDICTION-SOLITAIRE\ADDICTIONSOLITAIRE\RESOURCES\11C.GIF
C:\DOCUMENTS AND SETTINGS\KIRK HANSEN\REPOS\ADDICTION-SOLITAIRE\ADDICTIONSOLITAIRE\RESOURCES\11D.GIF
C:\DOCUMENTS AND SETTINGS\KIRK HANSEN\REPOS\ADDICTION-SOLITAIRE\ADDICTIONSOLITAIRE\RESOURCES\11H.GIF
C:\DOCUMENTS AND SETTINGS\KIRK HANSEN\REPOS\ADDICTION-SOLITAIRE\ADDICTIONSOLITAIRE\RESOURCES\11S.GIF
C:\DOCUMENTS AND SETTINGS\KIRK HANSEN\REPOS\ADDICTION-SOLITAIRE\ADDICTIONSOLITAIRE\RESOURCES\12C.GIF
C:\DOCUMENTS AND SETTINGS\KIRK HANSEN\REPOS\ADDICTION-SOLITAIRE\ADDICTIONSOLITAIRE\RESOURCES\12D.GIF
C:\DOCUMENTS AND SETTINGS\KIRK HANSEN\REPOS\ADDICTION-SOLITAIRE\ADDICTIONSOLITAIRE\RESOURCES\12H.GIF
C:\DOCUMENTS AND SETTINGS\KIRK HANSEN\REPOS\ADDICTION-SOLITAIRE\ADDICTIONSOLITAIRE\RESOURCES\12S.GIF
C:\DOCUMENTS AND SETTINGS\KIRK HANSEN\REPOS\ADDICTION-SOLITAIRE\ADDICTIONSOLITAIRE\RESOURCES\13C.GIF
C:\DOCUMENTS AND SETTINGS\KIRK HANSEN\REPOS\ADDICTION-SOLITAIRE\ADDICTIONSOLITAIRE\RESOURCES\13D.GIF
C:\DOCUMENTS AND SETTINGS\KIRK HANSEN\REPOS\ADDICTION-SOLITAIRE\ADDICTIONSOLITAIRE\RESOURCES\13H.GIF
C:\DOCUMENTS AND SETTINGS\KIRK HANSEN\REPOS\ADDICTION-SOLITAIRE\ADDICTIONSOLITAIRE\RESOURCES\13S.GIF
^L:\WINDOWS FILES\DOCUMENTS AND SETTINGS\KIRK HANSEN\DESKTOP\ADDICTIONSOLITAIRE\PROPERTIES\RESOURCES.RESX
C:\WINDOWS\ASSEMBLY\PUBPOL3.DAT
C:\WINDOWS\MICROSOFT.NET\ASSEMBLY\GAC_MSIL\MICROSOFT.BUILD.TASKS.V4.0\V4.0_4.0.0.0__B03F5F7F11D50A3A\MICROSOFT.BUILD.TASKS.V4.0.DLL
L:\WINDOWS FILES\DOCUMENTS AND SETTINGS\KIRK HANSEN\DESKTOP\ADDICTIONSOLITAIRE\RESOURCES\BACK192.GIF
L:\WINDOWS FILES\DOCUMENTS AND SETTINGS\KIRK HANSEN\DESKTOP\ADDICTIONSOLITAIRE\RESOURCES\01C.GIF
L:\WINDOWS FILES\DOCUMENTS AND SETTINGS\KIRK HANSEN\DESKTOP\ADDICTIONSOLITAIRE\RESOURCES\01D.GIF
L:\WINDOWS FILES\DOCUMENTS AND SETTINGS\KIRK HANSEN\DESKTOP\ADDICTIONSOLITAIRE\RESOURCES\01H.GIF
L:\WINDOWS FILES\DOCUMENTS AND SETTINGS\KIRK HANSEN\DESKTOP\ADDICTIONSOLITAIRE\RESOURCES\01S.GIF
L:\WINDOWS FILES\DOCUMENTS AND SETTINGS\KIRK HANSEN\DESKTOP\ADDICTIONSOLITAIRE\RESOURCES\02C.GIF
L:\WINDOWS FILES\DOCUMENTS AND SETTINGS\KIRK HANSEN\DESKTOP\ADDICTIONSOLITAIRE\RESOURCES\02D.GIF
L:\WINDOWS FILES\DOCUMENTS AND SETTINGS\KIRK HANSEN\DESKTOP\ADDICTIONSOLITAIRE\RESOURCES\02H.GIF
L:\WINDOWS FILES\DOCUMENTS AND SETTINGS\KIRK HANSEN\DESKTOP\ADDICTIONSOLITAIRE\RESOURCES\02S.GIF
L:\WINDOWS FILES\DOCUMENTS AND SETTINGS\KIRK HANSEN\DESKTOP\ADDICTIONSOLITAIRE\RESOURCES\03C.GIF
L:\WINDOWS FILES\DOCUMENTS AND SETTINGS\KIRK HANSEN\DESKTOP\ADDICTIONSOLITAIRE\RESOURCES\03D.GIF
L:\WINDOWS FILES\DOCUMENTS AND SETTINGS\KIRK HANSEN\DESKTOP\ADDICTIONSOLITAIRE\RESOURCES\03H.GIF
L:\WINDOWS FILES\DOCUMENTS AND SETTINGS\KIRK HANSEN\DESKTOP\ADDICTIONSOLITAIRE\RESOURCES\03S.GIF
L:\WINDOWS FILES\DOCUMENTS AND SETTINGS\KIRK HANSEN\DESKTOP\ADDICTIONSOLITAIRE\RESOURCES\04C.GIF
L:\WINDOWS FILES\DOCUMENTS AND SETTINGS\KIRK HANSEN\DESKTOP\ADDICTIONSOLITAIRE\RESOURCES\04D.GIF
L:\WINDOWS FILES\DOCUMENTS AND SETTINGS\KIRK HANSEN\DESKTOP\ADDICTIONSOLITAIRE\RESOURCES\04H.GIF
L:\WINDOWS FILES\DOCUMENTS AND SETTINGS\KIRK HANSEN\DESKTOP\ADDICTIONSOLITAIRE\RESOURCES\04S.GIF
L:\WINDOWS FILES\DOCUMENTS AND SETTINGS\KIRK HANSEN\DESKTOP\ADDICTIONSOLITAIRE\RESOURCES\05C.GIF
L:\WINDOWS FILES\DOCUMENTS AND SETTINGS\KIRK HANSEN\DESKTOP\ADDICTIONSOLITAIRE\RESOURCES\05D.GIF
L:\WINDOWS FILES\DOCUMENTS AND SETTINGS\KIRK HANSEN\DESKTOP\ADDICTIONSOLITAIRE\RESOURCES\05H.GIF
L:\WINDOWS FILES\DOCUMENTS AND SETTINGS\KIRK HANSEN\DESKTOP\ADDICTIONSOLITAIRE\RESOURCES\05S.GIF
L:\WINDOWS FILES\DOCUMENTS AND SETTINGS\KIRK HANSEN\DESKTOP\ADDICTIONSOLITAIRE\RESOURCES\06C.GIF
L:\WINDOWS FILES\DOCUMENTS AND SETTINGS\KIRK HANSEN\DESKTOP\ADDICTIONSOLITAIRE\RESOURCES\06D.GIF
L:\WINDOWS FILES\DOCUMENTS AND SETTINGS\KIRK HANSEN\DESKTOP\ADDICTIONSOLITAIRE\RESOURCES\06H.GIF
L:\WINDOWS FILES\DOCUMENTS AND SETTINGS\KIRK HANSEN\DESKTOP\ADDICTIONSOLITAIRE\RESOURCES\06S.GIF
L:\WINDOWS FILES\DOCUMENTS AND SETTINGS\KIRK HANSEN\DESKTOP\ADDICTIONSOLITAIRE\RESOURCES\07C.GIF
L:\WINDOWS FILES\DOCUMENTS AND SETTINGS\KIRK HANSEN\DESKTOP\ADDICTIONSOLITAIRE\RESOURCES\07D.GIF
L:\WINDOWS FILES\DOCUMENTS AND SETTINGS\KIRK HANSEN\DESKTOP\ADDICTIONSOLITAIRE\RESOURCES\07H.GIF
L:\WINDOWS FILES\DOCUMENTS AND SETTINGS\KIRK HANSEN\DESKTOP\ADDICTIONSOLITAIRE\RESOURCES\07S.GIF
L:\WINDOWS FILES\DOCUMENTS AND SETTINGS\KIRK HANSEN\DESKTOP\ADDICTIONSOLITAIRE\RESOURCES\08C.GIF
L:\WINDOWS FILES\DOCUMENTS AND SETTINGS\KIRK HANSEN\DESKTOP\ADDICTIONSOLITAIRE\RESOURCES\08D.GIF
L:\WINDOWS FILES\DOCUMENTS AND SETTINGS\KIRK HANSEN\DESKTOP\ADDICTIONSOLITAIRE\RESOURCES\08H.GIF
L:\WINDOWS FILES\DOCUMENTS AND SETTINGS\KIRK HANSEN\DESKTOP\ADDICTIONSOLITAIRE\RESOURCES\08S.GIF
L:\WINDOWS FILES\DOCUMENTS AND SETTINGS\KIRK HANSEN\DESKTOP\ADDICTIONSOLITAIRE\RESOURCES\09C.GIF
L:\WINDOWS FILES\DOCUMENTS AND SETTINGS\KIRK HANSEN\DESKTOP\ADDICTIONSOLITAIRE\RESOURCES\09D.GIF
L:\WINDOWS FILES\DOCUMENTS AND SETTINGS\KIRK HANSEN\DESKTOP\ADDICTIONSOLITAIRE\RESOURCES\09H.GIF
L:\WINDOWS FILES\DOCUMENTS AND SETTINGS\KIRK HANSEN\DESKTOP\ADDICTIONSOLITAIRE\RESOURCES\09S.GIF
L:\WINDOWS FILES\DOCUMENTS AND SETTINGS\KIRK HANSEN\DESKTOP\ADDICTIONSOLITAIRE\RESOURCES\10C.GIF
L:\WINDOWS FILES\DOCUMENTS AND SETTINGS\KIRK HANSEN\DESKTOP\ADDICTIONSOLITAIRE\RESOURCES\10D.GIF
L:\WINDOWS FILES\DOCUMENTS AND SETTINGS\KIRK HANSEN\DESKTOP\ADDICTIONSOLITAIRE\RESOURCES\10H.GIF
L:\WINDOWS FILES\DOCUMENTS AND SETTINGS\KIRK HANSEN\DESKTOP\ADDICTIONSOLITAIRE\RESOURCES\10S.GIF
L:\WINDOWS FILES\DOCUMENTS AND SETTINGS\KIRK HANSEN\DESKTOP\ADDICTIONSOLITAIRE\RESOURCES\11C.GIF
L:\WINDOWS FILES\DOCUMENTS AND SETTINGS\KIRK HANSEN\DESKTOP\ADDICTIONSOLITAIRE\RESOURCES\11D.GIF
L:\WINDOWS FILES\DOCUMENTS AND SETTINGS\KIRK HANSEN\DESKTOP\ADDICTIONSOLITAIRE\RESOURCES\11H.GIF
L:\WINDOWS FILES\DOCUMENTS AND SETTINGS\KIRK HANSEN\DESKTOP\ADDICTIONSOLITAIRE\RESOURCES\11S.GIF
L:\WINDOWS FILES\DOCUMENTS AND SETTINGS\KIRK HANSEN\DESKTOP\ADDICTIONSOLITAIRE\RESOURCES\12C.GIF
L:\WINDOWS FILES\DOCUMENTS AND SETTINGS\KIRK HANSEN\DESKTOP\ADDICTIONSOLITAIRE\RESOURCES\12D.GIF
L:\WINDOWS FILES\DOCUMENTS AND SETTINGS\KIRK HANSEN\DESKTOP\ADDICTIONSOLITAIRE\RESOURCES\12H.GIF
L:\WINDOWS FILES\DOCUMENTS AND SETTINGS\KIRK HANSEN\DESKTOP\ADDICTIONSOLITAIRE\RESOURCES\12S.GIF
L:\WINDOWS FILES\DOCUMENTS AND SETTINGS\KIRK HANSEN\DESKTOP\ADDICTIONSOLITAIRE\RESOURCES\13C.GIF
L:\WINDOWS FILES\DOCUMENTS AND SETTINGS\KIRK HANSEN\DESKTOP\ADDICTIONSOLITAIRE\RESOURCES\13D.GIF
L:\WINDOWS FILES\DOCUMENTS AND SETTINGS\KIRK HANSEN\DESKTOP\ADDICTIONSOLITAIRE\RESOURCES\13H.GIF
L:\WINDOWS FILES\DOCUMENTS AND SETTINGS\KIRK HANSEN\DESKTOP\ADDICTIONSOLITAIRE\RESOURCES\13S.GIF
^C:\DOCUMENTS AND SETTINGS\KIRK HANSEN\MY DOCUMENTS\VISUAL STUDIO 2010\PROJECTS\ADDICTIONSOLITAIRE\PROPERTIES\RESOURCES.RESX
C:\WINDOWS\ASSEMBLY\PUBPOL3.DAT
C:\WINDOWS\MICROSOFT.NET\ASSEMBLY\GAC_MSIL\MICROSOFT.BUILD.TASKS.V4.0\V4.0_4.0.0.0__B03F5F7F11D50A3A\MICROSOFT.BUILD.TASKS.V4.0.DLL
C:\DOCUMENTS AND SETTINGS\KIRK HANSEN\MY DOCUMENTS\VISUAL STUDIO 2010\PROJECTS\ADDICTIONSOLITAIRE\RESOURCES\BACK192.GIF
C:\DOCUMENTS AND SETTINGS\KIRK HANSEN\MY DOCUMENTS\VISUAL STUDIO 2010\PROJECTS\ADDICTIONSOLITAIRE\RESOURCES\01C.GIF
C:\DOCUMENTS AND SETTINGS\KIRK HANSEN\MY DOCUMENTS\VISUAL STUDIO 2010\PROJECTS\ADDICTIONSOLITAIRE\RESOURCES\01D.GIF
C:\DOCUMENTS AND SETTINGS\KIRK HANSEN\MY DOCUMENTS\VISUAL STUDIO 2010\PROJECTS\ADDICTIONSOLITAIRE\RESOURCES\01H.GIF
C:\DOCUMENTS AND SETTINGS\KIRK HANSEN\MY DOCUMENTS\VISUAL STUDIO 2010\PROJECTS\ADDICTIONSOLITAIRE\RESOURCES\01S.GIF
C:\DOCUMENTS AND SETTINGS\KIRK HANSEN\MY DOCUMENTS\VISUAL STUDIO 2010\PROJECTS\ADDICTIONSOLITAIRE\RESOURCES\02C.GIF
C:\DOCUMENTS AND SETTINGS\KIRK HANSEN\MY DOCUMENTS\VISUAL STUDIO 2010\PROJECTS\ADDICTIONSOLITAIRE\RESOURCES\02D.GIF
C:\DOCUMENTS AND SETTINGS\KIRK HANSEN\MY DOCUMENTS\VISUAL STUDIO 2010\PROJECTS\ADDICTIONSOLITAIRE\RESOURCES\02H.GIF
C:\DOCUMENTS AND SETTINGS\KIRK HANSEN\MY DOCUMENTS\VISUAL STUDIO 2010\PROJECTS\ADDICTIONSOLITAIRE\RESOURCES\02S.GIF
C:\DOCUMENTS AND SETTINGS\KIRK HANSEN\MY DOCUMENTS\VISUAL STUDIO 2010\PROJECTS\ADDICTIONSOLITAIRE\RESOURCES\03C.GIF
C:\DOCUMENTS AND SETTINGS\KIRK HANSEN\MY DOCUMENTS\VISUAL STUDIO 2010\PROJECTS\ADDICTIONSOLITAIRE\RESOURCES\03D.GIF
C:\DOCUMENTS AND SETTINGS\KIRK HANSEN\MY DOCUMENTS\VISUAL STUDIO 2010\PROJECTS\ADDICTIONSOLITAIRE\RESOURCES\03H.GIF
C:\DOCUMENTS AND SETTINGS\KIRK HANSEN\MY DOCUMENTS\VISUAL STUDIO 2010\PROJECTS\ADDICTIONSOLITAIRE\RESOURCES\03S.GIF
C:\DOCUMENTS AND SETTINGS\KIRK HANSEN\MY DOCUMENTS\VISUAL STUDIO 2010\PROJECTS\ADDICTIONSOLITAIRE\RESOURCES\04C.GIF
C:\DOCUMENTS AND SETTINGS\KIRK HANSEN\MY DOCUMENTS\VISUAL STUDIO 2010\PROJECTS\ADDICTIONSOLITAIRE\RESOURCES\04D.GIF
C:\DOCUMENTS AND SETTINGS\KIRK HANSEN\MY DOCUMENTS\VISUAL STUDIO 2010\PROJECTS\ADDICTIONSOLITAIRE\RESOURCES\04H.GIF
C:\DOCUMENTS AND SETTINGS\KIRK HANSEN\MY DOCUMENTS\VISUAL STUDIO 2010\PROJECTS\ADDICTIONSOLITAIRE\RESOURCES\04S.GIF
C:\DOCUMENTS AND SETTINGS\KIRK HANSEN\MY DOCUMENTS\VISUAL STUDIO 2010\PROJECTS\ADDICTIONSOLITAIRE\RESOURCES\05C.GIF
C:\DOCUMENTS AND SETTINGS\KIRK HANSEN\MY DOCUMENTS\VISUAL STUDIO 2010\PROJECTS\ADDICTIONSOLITAIRE\RESOURCES\05D.GIF
C:\DOCUMENTS AND SETTINGS\KIRK HANSEN\MY DOCUMENTS\VISUAL STUDIO 2010\PROJECTS\ADDICTIONSOLITAIRE\RESOURCES\05H.GIF
C:\DOCUMENTS AND SETTINGS\KIRK HANSEN\MY DOCUMENTS\VISUAL STUDIO 2010\PROJECTS\ADDICTIONSOLITAIRE\RESOURCES\05S.GIF
C:\DOCUMENTS AND SETTINGS\KIRK HANSEN\MY DOCUMENTS\VISUAL STUDIO 2010\PROJECTS\ADDICTIONSOLITAIRE\RESOURCES\06C.GIF
C:\DOCUMENTS AND SETTINGS\KIRK HANSEN\MY DOCUMENTS\VISUAL STUDIO 2010\PROJECTS\ADDICTIONSOLITAIRE\RESOURCES\06D.GIF
C:\DOCUMENTS AND SETTINGS\KIRK HANSEN\MY DOCUMENTS\VISUAL STUDIO 2010\PROJECTS\ADDICTIONSOLITAIRE\RESOURCES\06H.GIF
C:\DOCUMENTS AND SETTINGS\KIRK HANSEN\MY DOCUMENTS\VISUAL STUDIO 2010\PROJECTS\ADDICTIONSOLITAIRE\RESOURCES\06S.GIF
C:\DOCUMENTS AND SETTINGS\KIRK HANSEN\MY DOCUMENTS\VISUAL STUDIO 2010\PROJECTS\ADDICTIONSOLITAIRE\RESOURCES\07C.GIF
C:\DOCUMENTS AND SETTINGS\KIRK HANSEN\MY DOCUMENTS\VISUAL STUDIO 2010\PROJECTS\ADDICTIONSOLITAIRE\RESOURCES\07D.GIF
C:\DOCUMENTS AND SETTINGS\KIRK HANSEN\MY DOCUMENTS\VISUAL STUDIO 2010\PROJECTS\ADDICTIONSOLITAIRE\RESOURCES\07H.GIF
C:\DOCUMENTS AND SETTINGS\KIRK HANSEN\MY DOCUMENTS\VISUAL STUDIO 2010\PROJECTS\ADDICTIONSOLITAIRE\RESOURCES\07S.GIF
C:\DOCUMENTS AND SETTINGS\KIRK HANSEN\MY DOCUMENTS\VISUAL STUDIO 2010\PROJECTS\ADDICTIONSOLITAIRE\RESOURCES\08C.GIF
C:\DOCUMENTS AND SETTINGS\KIRK HANSEN\MY DOCUMENTS\VISUAL STUDIO 2010\PROJECTS\ADDICTIONSOLITAIRE\RESOURCES\08D.GIF
C:\DOCUMENTS AND SETTINGS\KIRK HANSEN\MY DOCUMENTS\VISUAL STUDIO 2010\PROJECTS\ADDICTIONSOLITAIRE\RESOURCES\08H.GIF
C:\DOCUMENTS AND SETTINGS\KIRK HANSEN\MY DOCUMENTS\VISUAL STUDIO 2010\PROJECTS\ADDICTIONSOLITAIRE\RESOURCES\08S.GIF
C:\DOCUMENTS AND SETTINGS\KIRK HANSEN\MY DOCUMENTS\VISUAL STUDIO 2010\PROJECTS\ADDICTIONSOLITAIRE\RESOURCES\09C.GIF
C:\DOCUMENTS AND SETTINGS\KIRK HANSEN\MY DOCUMENTS\VISUAL STUDIO 2010\PROJECTS\ADDICTIONSOLITAIRE\RESOURCES\09D.GIF
C:\DOCUMENTS AND SETTINGS\KIRK HANSEN\MY DOCUMENTS\VISUAL STUDIO 2010\PROJECTS\ADDICTIONSOLITAIRE\RESOURCES\09H.GIF
C:\DOCUMENTS AND SETTINGS\KIRK HANSEN\MY DOCUMENTS\VISUAL STUDIO 2010\PROJECTS\ADDICTIONSOLITAIRE\RESOURCES\09S.GIF
C:\DOCUMENTS AND SETTINGS\KIRK HANSEN\MY DOCUMENTS\VISUAL STUDIO 2010\PROJECTS\ADDICTIONSOLITAIRE\RESOURCES\10C.GIF
C:\DOCUMENTS AND SETTINGS\KIRK HANSEN\MY DOCUMENTS\VISUAL STUDIO 2010\PROJECTS\ADDICTIONSOLITAIRE\RESOURCES\10D.GIF
C:\DOCUMENTS AND SETTINGS\KIRK HANSEN\MY DOCUMENTS\VISUAL STUDIO 2010\PROJECTS\ADDICTIONSOLITAIRE\RESOURCES\10H.GIF
C:\DOCUMENTS AND SETTINGS\KIRK HANSEN\MY DOCUMENTS\VISUAL STUDIO 2010\PROJECTS\ADDICTIONSOLITAIRE\RESOURCES\10S.GIF
C:\DOCUMENTS AND SETTINGS\KIRK HANSEN\MY DOCUMENTS\VISUAL STUDIO 2010\PROJECTS\ADDICTIONSOLITAIRE\RESOURCES\11C.GIF
C:\DOCUMENTS AND SETTINGS\KIRK HANSEN\MY DOCUMENTS\VISUAL STUDIO 2010\PROJECTS\ADDICTIONSOLITAIRE\RESOURCES\11D.GIF
C:\DOCUMENTS AND SETTINGS\KIRK HANSEN\MY DOCUMENTS\VISUAL STUDIO 2010\PROJECTS\ADDICTIONSOLITAIRE\RESOURCES\11H.GIF
C:\DOCUMENTS AND SETTINGS\KIRK HANSEN\MY DOCUMENTS\VISUAL STUDIO 2010\PROJECTS\ADDICTIONSOLITAIRE\RESOURCES\11S.GIF
C:\DOCUMENTS AND SETTINGS\KIRK HANSEN\MY DOCUMENTS\VISUAL STUDIO 2010\PROJECTS\ADDICTIONSOLITAIRE\RESOURCES\12C.GIF
C:\DOCUMENTS AND SETTINGS\KIRK HANSEN\MY DOCUMENTS\VISUAL STUDIO 2010\PROJECTS\ADDICTIONSOLITAIRE\RESOURCES\12D.GIF
C:\DOCUMENTS AND SETTINGS\KIRK HANSEN\MY DOCUMENTS\VISUAL STUDIO 2010\PROJECTS\ADDICTIONSOLITAIRE\RESOURCES\12H.GIF
C:\DOCUMENTS AND SETTINGS\KIRK HANSEN\MY DOCUMENTS\VISUAL STUDIO 2010\PROJECTS\ADDICTIONSOLITAIRE\RESOURCES\12S.GIF
C:\DOCUMENTS AND SETTINGS\KIRK HANSEN\MY DOCUMENTS\VISUAL STUDIO 2010\PROJECTS\ADDICTIONSOLITAIRE\RESOURCES\13C.GIF
C:\DOCUMENTS AND SETTINGS\KIRK HANSEN\MY DOCUMENTS\VISUAL STUDIO 2010\PROJECTS\ADDICTIONSOLITAIRE\RESOURCES\13D.GIF
C:\DOCUMENTS AND SETTINGS\KIRK HANSEN\MY DOCUMENTS\VISUAL STUDIO 2010\PROJECTS\ADDICTIONSOLITAIRE\RESOURCES\13H.GIF
C:\DOCUMENTS AND SETTINGS\KIRK HANSEN\MY DOCUMENTS\VISUAL STUDIO 2010\PROJECTS\ADDICTIONSOLITAIRE\RESOURCES\13S.GIF
